<svg width="122" height="51" viewBox="0 0 122 51" fill="none" xmlns="http://www.w3.org/2000/svg">
<path d="M19.664 41.04C18.864 41.168 17.984 41.312 17.024 41.472C16.064 41.632 15.2 41.776 14.432 41.904C14.56 40.848 14.688 39.808 14.816 38.784C14.912 37.888 14.992 36.992 15.056 36.096C15.152 35.2 15.232 34.432 15.296 33.792H11.12L9.2 40.704C8.496 40.8 7.664 40.912 6.704 41.04C5.744 41.136 4.848 41.232 4.016 41.328C2.992 41.456 1.984 41.584 0.992 41.712C2.272 37.456 3.536 33.264 4.784 29.136C5.296 27.408 5.824 25.6 6.368 23.712C6.944 21.824 7.504 19.952 8.048 18.096C8.624 16.208 9.168 14.4 9.68 12.672C10.192 10.944 10.64 9.36 11.024 7.92C13.2 7.76 15.408 7.568 17.648 7.344C19.92 7.12 22.128 6.816 24.272 6.432C24.176 7.456 24.064 8.736 23.936 10.272C23.84 11.776 23.744 13.424 23.648 15.216C23.552 17.008 23.456 18.88 23.36 20.832C23.264 22.784 23.168 24.704 23.072 26.592C22.912 31.008 22.736 35.696 22.544 40.656C21.584 40.816 20.624 40.944 19.664 41.04ZM12.272 28.992C12.4 28.992 12.624 28.992 12.944 28.992C13.296 28.96 13.648 28.944 14 28.944C14.384 28.912 14.736 28.896 15.056 28.896C15.376 28.864 15.6 28.832 15.728 28.8C15.728 28.608 15.744 28.288 15.776 27.84C15.84 27.36 15.888 26.832 15.92 26.256C15.984 25.648 16.048 24.992 16.112 24.288C16.176 23.584 16.24 22.896 16.304 22.224C16.432 20.592 16.592 18.832 16.784 16.944L17.072 12.768L16.352 12.816L15.248 16.944L12.272 28.992ZM36.0136 40.464C35.0216 40.464 33.9656 40.496 32.8456 40.56C31.7576 40.624 30.6536 40.72 29.5336 40.848C28.4136 40.976 27.3096 41.152 26.2216 41.376C25.1656 41.568 24.2056 41.808 23.3416 42.096C23.5336 40.656 23.7576 39.056 24.0136 37.296C24.2696 35.536 24.5576 33.712 24.8776 31.824C25.2296 29.936 25.5656 28.032 25.8856 26.112C26.2376 24.192 26.5896 22.352 26.9416 20.592C27.7416 16.4 28.5896 12.128 29.4856 7.776L37.8856 6.672C37.0216 10.384 36.1896 14 35.3896 17.52C35.0376 19.024 34.6856 20.592 34.3336 22.224C33.9816 23.824 33.6456 25.392 33.3256 26.928C33.0056 28.464 32.7176 29.952 32.4616 31.392C32.2056 32.832 31.9976 34.112 31.8376 35.232C32.6376 35.168 33.4856 35.136 34.3816 35.136C35.3096 35.104 36.1256 35.088 36.8296 35.088C36.8616 35.696 36.9096 36.304 36.9736 36.912C37.0376 37.488 37.1016 38.016 37.1656 38.496C37.2616 38.976 37.3256 39.408 37.3576 39.792C37.4216 40.144 37.4696 40.384 37.5016 40.512C37.2456 40.512 36.9896 40.512 36.7336 40.512C36.5096 40.48 36.2696 40.464 36.0136 40.464ZM37.634 42.048L43.922 7.92L59.09 6.624C58.866 7.328 58.674 8.048 58.514 8.784C58.354 9.392 58.194 10.032 58.034 10.704C57.906 11.344 57.794 11.92 57.698 12.432C57.378 12.464 56.914 12.496 56.306 12.528C55.73 12.528 55.106 12.544 54.434 12.576C53.762 12.576 53.074 12.576 52.37 12.576C51.698 12.576 51.106 12.576 50.594 12.576L48.914 21.168C49.906 21.104 50.834 21.056 51.698 21.024C52.402 20.992 53.122 20.976 53.858 20.976C54.594 20.976 55.138 20.96 55.49 20.928C55.362 21.824 55.234 22.704 55.106 23.568C55.01 24.432 54.882 25.312 54.722 26.208C54.402 26.24 53.874 26.272 53.138 26.304C52.434 26.304 51.714 26.32 50.978 26.352C50.146 26.384 49.234 26.416 48.242 26.448L46.61 35.28L53.618 34.176L53.138 39.648L37.634 42.048ZM74.0574 39.792C73.9934 39.824 73.7694 39.888 73.3854 39.984C73.0014 40.08 72.5214 40.208 71.9454 40.368C71.3694 40.528 70.7294 40.704 70.0254 40.896C69.3534 41.088 68.6814 41.28 68.0094 41.472C67.3694 41.664 66.7614 41.84 66.1854 42C65.6094 42.192 65.1614 42.352 64.8414 42.48C64.7454 41.2 64.6654 39.952 64.6014 38.736C64.5374 37.68 64.4574 36.624 64.3614 35.568C64.2974 34.512 64.2494 33.632 64.2174 32.928C63.9294 33.632 63.5454 34.512 63.0654 35.568C62.6174 36.624 62.1694 37.664 61.7214 38.688C61.1774 39.872 60.6174 41.072 60.0414 42.288L51.8814 41.568C53.4814 38.72 55.0814 35.904 56.6814 33.12C58.2814 30.336 59.7534 27.424 61.0974 24.384C60.9054 22.944 60.7134 21.664 60.5214 20.544C60.3614 19.424 60.1694 18.32 59.9454 17.232C59.7214 16.144 59.4814 15.056 59.2254 13.968C58.9694 12.848 58.7134 11.584 58.4574 10.176L66.1374 7.008C66.2974 8.512 66.4734 10.176 66.6654 12C66.8894 13.824 67.0814 15.504 67.2414 17.04C67.9774 15.44 68.6974 13.84 69.4014 12.24C70.1374 10.64 70.8894 9.056 71.6574 7.488L78.6174 9.36C77.7854 10.768 77.0334 12.064 76.3614 13.248C75.6894 14.432 75.0494 15.616 74.4414 16.8C73.8334 17.984 73.2254 19.2 72.6174 20.448C72.0094 21.664 71.3534 23.024 70.6494 24.528C70.8414 25.936 71.0654 27.264 71.3214 28.512C71.5774 29.76 71.8494 30.992 72.1374 32.208C72.4574 33.424 72.7614 34.656 73.0494 35.904C73.3694 37.12 73.7054 38.416 74.0574 39.792ZM100.224 16.032C100.224 18.656 99.9358 21.136 99.3598 23.472C98.8158 25.776 98.0798 27.904 97.1518 29.856C96.2238 31.776 95.1358 33.504 93.8878 35.04C92.6718 36.544 91.3918 37.84 90.0478 38.928C88.7038 39.984 87.3438 40.8 85.9678 41.376C84.5918 41.92 83.2798 42.192 82.0318 42.192C80.9758 42.192 80.0158 42 79.1518 41.616C78.2878 41.2 77.5358 40.608 76.8958 39.84C76.2558 39.04 75.7438 38.032 75.3598 36.816C75.0078 35.568 74.8318 34.08 74.8318 32.352C74.8318 30.56 75.0558 28.672 75.5038 26.688C75.9518 24.704 76.5598 22.736 77.3278 20.784C78.0958 18.832 79.0398 16.976 80.1598 15.216C81.2798 13.456 82.5118 11.904 83.8558 10.56C85.1998 9.184 86.6398 8.096 88.1758 7.296C89.7118 6.496 91.3118 6.096 92.9758 6.096C94.4158 6.096 95.5998 6.4 96.5278 7.008C97.4878 7.584 98.2238 8.352 98.7358 9.312C99.2798 10.24 99.6638 11.296 99.8878 12.48C100.112 13.664 100.224 14.848 100.224 16.032ZM81.9838 31.104C81.9838 31.456 82.0478 31.824 82.1758 32.208C82.3038 32.592 82.4798 32.928 82.7038 33.216C82.9278 33.504 83.1998 33.76 83.5198 33.984C83.8718 34.176 84.2398 34.272 84.6238 34.272C86.0638 34.272 87.3438 33.776 88.4638 32.784C89.5838 31.792 90.5118 30.576 91.2478 29.136C91.9838 27.696 92.5438 26.16 92.9278 24.528C93.3438 22.896 93.5518 21.408 93.5518 20.064C93.5518 19.68 93.5198 19.264 93.4558 18.816C93.4238 18.368 93.3278 17.952 93.1678 17.568C93.0398 17.184 92.8158 16.864 92.4958 16.608C92.2078 16.32 91.8078 16.176 91.2958 16.176C90.2718 16.176 89.3278 16.432 88.4638 16.944C87.5998 17.456 86.8158 18.144 86.1118 19.008C85.4398 19.84 84.8478 20.8 84.3358 21.888C83.8238 22.944 83.3758 24.032 82.9918 25.152C82.6398 26.24 82.3838 27.312 82.2238 28.368C82.0638 29.424 81.9838 30.336 81.9838 31.104ZM118.28 30.144C118.28 31.936 117.928 33.568 117.224 35.04C116.552 36.48 115.624 37.728 114.44 38.784C113.288 39.84 111.912 40.656 110.312 41.232C108.744 41.808 107.048 42.096 105.224 42.096C103.944 42.096 102.664 41.76 101.384 41.088C100.104 40.384 98.8716 39.28 97.6876 37.776L101.24 30.816C101.464 31.232 101.8 31.664 102.248 32.112C102.696 32.528 103.192 32.896 103.736 33.216C104.312 33.536 104.872 33.808 105.416 34.032C105.992 34.224 106.504 34.32 106.952 34.32C107.336 34.32 107.736 34.256 108.152 34.128C108.568 34 108.952 33.808 109.304 33.552C109.656 33.296 109.928 33.008 110.12 32.688C110.344 32.336 110.456 31.936 110.456 31.488C110.456 30.72 110.2 30.016 109.688 29.376C109.208 28.704 108.6 28.08 107.864 27.504C107.128 26.896 106.328 26.288 105.464 25.68C104.6 25.072 103.8 24.432 103.064 23.76C102.36 23.088 101.752 22.336 101.24 21.504C100.728 20.672 100.472 19.744 100.472 18.72C100.472 17.056 100.968 15.504 101.96 14.064C102.952 12.624 104.184 11.392 105.656 10.368C107.16 9.312 108.792 8.48 110.552 7.872C112.312 7.264 113.976 6.96 115.544 6.96C116.408 6.96 117.224 7.072 117.992 7.296C118.76 7.488 119.416 7.824 119.96 8.304C120.536 8.752 120.984 9.328 121.304 10.032C121.656 10.736 121.832 11.616 121.832 12.672C121.832 13.12 121.784 13.568 121.688 14.016C121.624 14.464 121.56 14.944 121.496 15.456L114.536 17.472C114.6 17.216 114.648 16.96 114.68 16.704C114.744 16.448 114.776 16.192 114.776 15.936C114.776 14.976 114.6 14.288 114.248 13.872C113.928 13.424 113.496 13.2 112.952 13.2C112.696 13.2 112.376 13.296 111.992 13.488C111.64 13.68 111.272 13.936 110.888 14.256C110.536 14.544 110.232 14.896 109.976 15.312C109.72 15.728 109.592 16.176 109.592 16.656C109.592 17.424 109.8 18.064 110.216 18.576C110.664 19.088 111.208 19.568 111.848 20.016C112.488 20.464 113.176 20.928 113.912 21.408C114.68 21.856 115.384 22.448 116.024 23.184C116.664 23.92 117.192 24.848 117.608 25.968C118.056 27.056 118.28 28.448 118.28 30.144Z" fill="currentColor"/>
</svg>
